{
   "message":null,
   "aot":[
      {
         "aotCode":"T",
         "aotDesc":"Torino"
      },
      {
         "aotCode":"M",
         "aotDesc":"Milano"
      },
      {
         "aotCode":"V",
         "aotDesc":"Venezia"
      },
      {
         "aotCode":"F",
         "aotDesc":"Firenze"
      },
      {
         "aotCode":"R",
         "aotDesc":"Roma"
      },
      {
         "aotCode":"N",
         "aotDesc":"Napoli"
      },
      {
         "aotCode":"P",
         "aotDesc":"Palermo"
      },
      {
         "aotCode":"C",
         "aotDesc":"Cagliari"
      }
   ]
}