{
   "lastVal": [
      {
         "aotCode": "R",
         "kvl": "3",
         "circuitIDSAP": "22202B1",
         "deviceID": "1:1:3:5:6:DLG20178",
         "positionCode": "22202B1-019-CAVO-R",
         "posCodeA": "",
         "timestamp": "1603284388",
         "metrics": [
            {
               "metricName": "SENS_TemperaturaCavo_Fase12",
               "val": "2",
               "qc": "0",
               "isActiveAlarm": true
            }
         ],
         "posCodeB": ""
      },
      {
         "aotCode": "R",
         "kvl": "6",
         "circuitIDSAP": "22202B1",
         "deviceID": "1:1:3:5:6:DLG20179",
         "positionCode": "22202B1-027-CAVO-R",
         "posCodeA": "",
         "timestamp": "1603286316",
         "metrics": [
            {
               "metricName": "SENS_TemperaturaCavo_CorrenteFase4",
               "val": "1.2",
               "qc": "0",
               "isActiveAlarm": false
            },
            {
               "metricName": "SENS_TemperaturaCavo_CorrenteFase5",
               "val": "1.2",
               "qc": "0",
               "isActiveAlarm": false
            }
         ],
         "posCodeB": ""
      },
      {
         "aotCode": "R",
         "kvl": "6",
         "circuitIDSAP": "22202B1",
         "deviceID": "1:1:3:5:6:DLG20179",
         "positionCode": "22202B1-029-CAVO-R",
         "posCodeA": "",
         "timestamp": "1603284388",
         "metrics": [
            {
               "metricName": "SENS_TemperaturaCavo_CorrenteFase4",
               "val": "0",
               "qc": "0",
               "isActiveAlarm": true
            }
         ],
         "posCodeB": ""
      },
      {
         "aotCode": "N",
         "kvl": "3",
         "circuitIDSAP": "22281E1",
         "deviceID": "1:1:3:5:6:DLG20087",
         "positionCode": "22281E1_X1",
         "posCodeA": "",
         "timestamp": "1603286316",
         "metrics": [
            {
               "metricName": "SENS_PressOlioCavo_Bassissima",
               "val": "0",
               "qc": "0",
               "isActiveAlarm": false
            },
            {
               "metricName": "SENS_TemperaturaCavo_Fase4",
               "val": "85",
               "qc": "0",
               "isActiveAlarm": false
            },
            {
               "metricName": "ALG_PressTerminale_Alta",
               "val": "1",
               "qc": "0",
               "isActiveAlarm": true
            }
         ],
         "posCodeB": ""
      },
      {
         "aotCode": "N",
         "kvl": "3",
         "circuitIDSAP": "22281E1",
         "deviceID": "1:1:3:5:6:DLG20088",
         "positionCode": "22281E1_X1",
         "posCodeA": "",
         "timestamp": "1603284388",
         "metrics": [
            {
               "metricName": "ALG_RapportoKCorrSchermo_Fase8",
               "val": "85",
               "qc": "0",
               "isActiveAlarm": true
            }
         ],
         "posCodeB": ""
      },
      {
         "aotCode": "N",
         "kvl": "3",
         "circuitIDSAP": "22281E1",
         "deviceID": "1:1:3:5:6:DLG20088",
         "positionCode": "22281E1-002-NAC--R",
         "posCodeA": "",
         "timestamp": "1603284388",
         "metrics": [
            {
               "metricName": "ALG_PressTerminale_Fase4_Bassissima",
               "val": "2",
               "qc": "0",
               "isActiveAlarm": false
            }
         ],
         "posCodeB": ""
      },
      {
         "aotCode": "N",
         "kvl": "3",
         "circuitIDSAP": "22281E1",
         "deviceID": "1:1:3:5:6:DLG20088",
         "positionCode": "22281E1-006-NAC--R",
         "posCodeA": "",
         "timestamp": "1603284388",
         "metrics": [
            {
               "metricName": "ALG_PressTerminale_Fase4_Bassissima",
               "val": "85",
               "qc": "0",
               "isActiveAlarm": false
            }
         ],
         "posCodeB": ""
      }
   ],
   "message": {
      "code": "OK",
      "description": "Chiamata al servizio /api/historical/v1/lastval terminata correttamente"
   }
}
